6 ESRD – CCNs
…
The hospital closes the dialysis facility but retains its transplant program. The CMS terminates the outpatient dialysis services but retains the ESRD CCN for the still active transplant program;

The hospital closes the transplant program but retains the ESRD facility. In such case, CMS terminates the transplant program but keeps the ESRD CCN active for the dialysis program;

The ESRD facility is purchased by another ESRD facility of the same type. For example, independent by independent or hospital-based by hospital-based; and

The geographic location of the ESRD facility is changed within the same state. A recertification survey is always required when a dialysis facility relocates within a state. If a geographic location is changed to another state, the ESRD facility at the old location must be terminated and the relocated ESRD facility must qualify as a new applicant with a new identification number in the state to which it moved.

6.2 Examples

esrd <- ccn:::get_pin("esrd")
esrd

# A tibble: 7,561 × 8
   ccn    state facility_name                    chain profit office  peri  home
   <chr>  <chr> <chr>                            <chr> <chr>   <int> <int> <int>
 1 012306 AL    CHILDRENS HOSPITAL DIALYSIS      Inde… N           1     1     1
 2 012500 AL    FMC CAPITOL CITY                 Fres… P           1     1     1
 3 012501 AL    DaVita Gadsden Dialysis          DaVi… P           1     0     0
 4 012502 AL    DaVita Tuscaloosa University Di… DaVi… P           1     1     0
 5 012505 AL    DaVita PDI-Montgomery            DaVi… P           1     1     1
 6 012506 AL    DaVita Dothan Dialysis           DaVi… P           1     1     1
 7 012507 AL    FMC MOBILE                       Fres… P           1     0     0
 8 012508 AL    DaVita Birmingham East Dialysis  DaVi… P           1     0     0
 9 012512 AL    FMC SELMA                        Fres… P           1     0     0
10 012513 AL    BMA LANGDALE                     Fres… P           1     0     0
# ℹ 7,551 more rows
…
