16 Implementation – CMS Certification Numbers
…
For optimal display, I recommend also defining an abbreviated type name, which should be 4-5 letters for commonly used vectors. This is used in tibbles and in str():

vec_ptype_abbr.ccn <- function(x, ...) {
  "ccn"
}

tibble::tibble(x)

# A tibble: 2,000 × 1
   x     
   <ccn> 
 1 001500
 2 001502
 3 001503
 4 001509
 5 001510
 6 001511
 7 001513
 8 001514
 9 001515
10 001517
# ℹ 1,990 more rows
…
